240968332 (Backup)/DISL (Backup)/lab7/jk_ff_sync_reset.vcd
$date
	Thu Sep 25 15:09:27 2025
$end
$version
	Icarus Verilog
$end
$timescale
	1ps
$end
$scope module tb_jk_ff_sync_reset $end
$var wire 1 ! q $end
$var reg 1 " clk $end
$var reg 1 # j $end
$var reg 1 $ k $end
$var reg 1 % reset $end
$scope module uut $end
$var wire 1 " clk $end
$var wire 1 # j $end
$var wire 1 $ k $end
$var wire 1 % reset $end
$var reg 1 ! q $end
$upscope $end
$upscope $end
$enddefinitions $end
#0
$dumpvars
0%
0$
0#
0"
x!
$end
#5000
1"
#10000
0"
1$
1#
1%
#15000
0!
1"
#20000
0"
0$
0%
#25000
1!
1"
#30000
0"
1$
0#
#35000
0!
1"
#40000
0"
1#
#45000
1!
1"
#50000
0"
0$
0#
